tezt/_regressions/protocol.alpha.roll.out

./tezos-codec encode alpha.roll from 2147483647
7fffffff

./tezos-codec decode alpha.roll from 7fffffff
2147483647

./tezos-codec encode alpha.roll from 0
00000000

./tezos-codec decode alpha.roll from 00000000
0
